decal-midterm
…
colnames(data0) = c("claim_number", "age", "income", "marital_status", "education", "mvr_points", "car_age", "location", "old_claim", "premium")
data0$income2 = as.numeric(gsub("[\\$,]", "", data0$income))

## Warning: NAs introduced by coercion

data0$old_claim2 = as.numeric(gsub("[\\$-,]", "", data0$old_claim))

## Warning: NAs introduced by coercion

data0

## # A tibble: 8,161 x 12
##    claim_number   age income marital_status education mvr_points car_age
##           <dbl> <dbl> <chr>  <chr>          <chr>          <dbl>   <dbl>
##  1            1    60 $67,3 No             PhD                3      18
##  2            2    43 $91,4 No             High Sch          0       1
##  3            3    35 $16,0 Yes            High Sch          3      10
##  4            4    51 $64,6 Yes            <High Sc          0       6
##  5            5    50 $114, Yes            PhD                3      17
##  6            6    34 $125, No             Bachelors          0       7
##  7            7    54 $18,7 Yes            <High Sc          0       1
##  8            8    37 $107, Yes            Bachelors         10       7
##  9            9    34 $62,9 No             Bachelors          0       1
## 10           10    50 $106, No             Bachelors          1      17
## # ... with 8,151 more rows, and 5 more variables: location <chr>,
## #   old_claim <chr>, premium <chr>, income2 <dbl>, old_claim2 <dbl>

pca_data <-  select(data0, age, income2, mvr_points, old_claim2, car_age, education, location, marital_status)
pca_data$old_claim2[is.na(pca_data$old_claim2)] <- 0
pca_data$income2[is.na(pca_data$income2)] <- 0
pca_data

## # A tibble: 8,161 x 8
##      age income2 mvr_points old_claim2 car_age education location
##    <dbl>   <dbl>      <dbl>      <dbl>   <dbl> <chr>     <chr>   
##  1    60   67349          3       4461      18 PhD       Highly 
##  2    43   91449          0          0       1 High Sch Highly 
##  3    35   16039          3      38690      10 High Sch Highly 
##  4    51   64618          0          0       6 <High Sc Highly 
##  5    50  114986          3      19217      17 PhD       Highly 
##  6    34  125301          0          0       7 Bachelors Highly 
##  7    54   18755          0          0       1 <High Sc Highly 
##  8    37  107961         10       2374       7 Bachelors Highly 
##  9    34   62978          0          0       1 Bachelors Highly 
## 10    50  106952          1          0      17 Bachelors Highly 
## # ... with 8,151 more rows, and 1 more variable: marital_status <chr>

sample_pca_data <- pca_data[sample(nrow(pca_data), 200), ]
sample_pca_data

## # A tibble: 200 x 8
##      age income2 mvr_points old_claim2 car_age education location
##    <dbl>   <dbl>      <dbl>      <dbl>   <dbl> <chr>     <chr>   
##  1    40    5253          0          0       1 High Sch Highly 
##  2    57   66293          0          0       7 Bachelors Highly 
##  3    40    2660          3          0       6 <High Sc Highly 
##  4    38   37769          7       2820       5 <High Sc Highly 
##  5    52   42778          0          0      13 Bachelors Highly 
##  6    38   40542          0      24066       8 High Sch Highly 
##  7    49   94283          1          0      19 Masters   Highly 
##  8    53   51435          3       4099       1 High Sch Highly 
##  9    59   65456          0          0       7 Bachelors Highly 
## 10    57  148443          4       7014      11 Masters   Highly 
## # ... with 190 more rows, and 1 more variable: marital_status <chr>
…
age <- select(sample_pca_data, age, mvr_points)
age

## # A tibble: 200 x 2
##      age mvr_points
##    <dbl>      <dbl>
##  1    40          0
##  2    57          0
##  3    40          3
##  4    38          7
##  5    52          0
##  6    38          0
##  7    49          1
##  8    53          3
##  9    59          0
## 10    57          4
## # ... with 190 more rows
…
